{
  "$schema": "http://json-schema.org/draft-07/schema#",
  "title": "Report format for GitLab Dependency Scanning",
  "description": "This schema provides the the report format for Dependency Scanning analyzers (https://docs.gitlab.com/ee/user/application_security/dependency_scanning).",
  "allOf": [
    { "$ref": "security-report-format.json" },
    {
      "properties": {
        "scan": {
          "properties": {
            "type": {
              "enum": ["dependency_scanning"]
            }
          }
        }
      }
    },
    {
      "properties": {
        "dependency_files": {
          "type": "array",
          "description": "List of dependency files identified in the project.",
          "items": {
            "$ref": "security-report-format.json#/definitions/dependency_file"
          }
        }
      },
      "required": [ "dependency_files" ]
    },
    {
      "properties": {
        "vulnerabilities": {
          "items": {
            "properties": {
              "location": { "$ref": "#/definitions/location" }
            },
            "required": [ "location" ]
          }
        }
      }
    }
  ],
  "definitions": {
    "location": {
      "type": "object",
      "description": "Identifies the vulnerability's location.",
      "properties": {
        "file": {
          "type": "string",
          "minLength": 1,
          "description": "Path to the manifest or lock file where the dependency is declared (such as yarn.lock)."
        },
        "dependency": {
          "$ref": "security-report-format.json#/definitions/dependency"
        }
      },
      "required": [ "file", "dependency" ]
    }
  }
}
